<?xml version="1.0" encoding="UTF-8"?>
<testng-results skipped="0" failed="0" ignored="0" total="1" passed="1">
  <reporter-output>
  </reporter-output>
  <suite name="Suite" duration-ms="17371" started-at="2018-11-07T10:44:28Z" finished-at="2018-11-07T10:44:46Z">
    <groups>
      <group name="cucumber">
        <method signature="AbstractTestNGCucumberTests.feature(cucumber.api.testng.CucumberFeatureWrapper)[pri:0, instance:com.finserve.runner.TestRunner@7946e1f4]" name="feature" class="cucumber.api.testng.AbstractTestNGCucumberTests"/>
      </group> <!-- cucumber -->
    </groups>
    <test name="Chrome" duration-ms="17371" started-at="2018-11-07T10:44:28Z" finished-at="2018-11-07T10:44:46Z">
      <class name="com.finserve.runner.TestRunner">
        <test-method status="PASS" signature="suiteSetUp()[pri:0, instance:com.finserve.runner.TestRunner@7946e1f4]" name="suiteSetUp" is-config="true" duration-ms="471" started-at="2018-11-07T10:44:28Z" finished-at="2018-11-07T10:44:28Z">
          <reporter-output>
          </reporter-output>
        </test-method> <!-- suiteSetUp -->
        <test-method status="PASS" signature="setUpClass()[pri:0, instance:com.finserve.runner.TestRunner@7946e1f4]" name="setUpClass" is-config="true" duration-ms="653" started-at="2018-11-07T10:44:28Z" finished-at="2018-11-07T10:44:29Z">
          <reporter-output>
          </reporter-output>
        </test-method> <!-- setUpClass -->
        <test-method status="PASS" signature="feature(cucumber.api.testng.CucumberFeatureWrapper)[pri:0, instance:com.finserve.runner.TestRunner@7946e1f4]" name="feature" duration-ms="16452" started-at="2018-11-07T10:44:29Z" description="Runs Cucumber Feature" data-provider="features" finished-at="2018-11-07T10:44:46Z">
          <params>
            <param index="0">
              <value>
                <![CDATA[AccountActivity]]>
              </value>
            </param>
          </params>
          <reporter-output>
          </reporter-output>
        </test-method> <!-- feature -->
        <test-method status="PASS" signature="tearDownClass()[pri:0, instance:com.finserve.runner.TestRunner@7946e1f4]" name="tearDownClass" is-config="true" duration-ms="3" started-at="2018-11-07T10:44:46Z" finished-at="2018-11-07T10:44:46Z">
          <reporter-output>
          </reporter-output>
        </test-method> <!-- tearDownClass -->
        <test-method status="PASS" signature="suiteTearDown()[pri:0, instance:com.finserve.runner.TestRunner@7946e1f4]" name="suiteTearDown" is-config="true" duration-ms="623" started-at="2018-11-07T10:44:46Z" finished-at="2018-11-07T10:44:46Z">
          <reporter-output>
          </reporter-output>
        </test-method> <!-- suiteTearDown -->
      </class> <!-- com.finserve.runner.TestRunner -->
    </test> <!-- Chrome -->
  </suite> <!-- Suite -->
</testng-results>
